Convert an object to a simple feature or bounding box object — as_sf • sfext
…
as_bbox(nc)
#>      xmin      ymin      xmax      ymax 
#> -84.32385  33.88199 -75.45698  36.58965 

as_sf_list(nc, col = "category")
#> $a
#> Simple feature collection with 25 features and 15 fields
#> Geometry type: MULTIPOLYGON
#> Dimension:     XY
#> Bounding box:  xmin: -83.25912 ymin: 34.36442 xmax: -76.35819 ymax: 36.55629
#> Geodetic CRS:  NAD27
#> # A tibble: 25 × 16
#>     AREA PERIMETER CNTY_ CNTY_ID NAME  FIPS  FIPSNO CRESS_ID BIR74 SID74 NWBIR74
#>    <dbl>     <dbl> <dbl>   <dbl> <chr> <chr>  <dbl>    <int> <dbl> <dbl>   <dbl>
#>  1 0.097      1.67  1833    1833 Hert… 37091  37091       46  1452     7     954
#>  2 0.114      1.35  1838    1838 Casw… 37033  37033       17  1035     2     550
#>  3 0.109      1.32  1841    1841 Pers… 37145  37145       73  1556     4     613
#>  4 0.128      1.55  1897    1897 Fran… 37069  37069       35  1399     2     736
#>  5 0.108      1.48  1900    1900 Fors… 37067  37067       34 11858    10    3919
#>  6 0.131      1.52  1928    1928 Edge… 37065  37065       33  3657    10    2186
#>  7 0.08       1.31  1936    1936 Yanc… 37199  37199      100   770     0      12
#>  8 0.066      1.07  1950    1950 Alex… 37003  37003        2  1333     0     128
#>  9 0.1        1.33  1962    1962 Wash… 37187  37187       94   990     5     521
#> 10 0.116      1.66  1964    1964 McDo… 37111  37111       56  1946     5     134
#> # ℹ 15 more rows
#> # ℹ 5 more variables: BIR79 <dbl>, SID79 <dbl>, NWBIR79 <dbl>,
#> #   geometry <MULTIPOLYGON [°]>, category <chr>
…
