Convert between simple feature and data frame objects — sf_to_df • sfext
…
nc <- read_sf_path(system.file("shape/nc.shp", package = "sf"))

# Convert a sf object to a data frame
nc_df <- sf_to_df(nc)

# Convert a data frame to a sf object
df_to_sf(nc_df, coords = c("lon", "lat"), remove_coords = TRUE)
#> Simple feature collection with 100 features and 14 fields
#> Attribute-geometry relationship: 14 constant, 0 aggregate, 0 identity
#> Geometry type: POINT
#> Dimension:     XY
#> Bounding box:  xmin: -84.05977 ymin: 34.07688 xmax: -75.80913 ymax: 36.49124
#> Geodetic CRS:  WGS 84
#> # A tibble: 100 × 15
#>     AREA PERIMETER CNTY_ CNTY_ID NAME   FIPS  FIPSNO CRESS…¹ BIR74 SID74 NWBIR74
#>  * <dbl>     <dbl> <dbl>   <dbl> <chr>  <chr>  <dbl>   <int> <dbl> <dbl>   <dbl>
#>  1 0.114      1.44  1825    1825 Ashe   37009  37009       5  1091     1      10
#>  2 0.061      1.23  1827    1827 Alleg… 37005  37005       3   487     0      10
#>  3 0.143      1.63  1828    1828 Surry  37171  37171      86  3188     5     208
#>  4 0.07       2.97  1831    1831 Curri… 37053  37053      27   508     1     123
#>  5 0.153      2.21  1832    1832 North… 37131  37131      66  1421     9    1066
#>  6 0.097      1.67  1833    1833 Hertf… 37091  37091      46  1452     7     954
#>  7 0.062      1.55  1834    1834 Camden 37029  37029      15   286     0     115
#>  8 0.091      1.28  1835    1835 Gates  37073  37073      37   420     0     254
#>  9 0.118      1.42  1836    1836 Warren 37185  37185      93   968     4     748
#> 10 0.124      1.43  1837    1837 Stokes 37169  37169      85  1612     1     160
#> # … with 90 more rows, 4 more variables: BIR79 <dbl>, SID79 <dbl>,
#> #   NWBIR79 <dbl>, geometry <POINT [°]>, and abbreviated variable name
#> #   ¹​CRESS_ID

# If lon and lat values are present in a single column, use the into parameter
# to split the values back into separate columns
nc_df$xy <- paste(nc_df$lon, nc_df$lat, sep = ",")

df_to_sf(nc_df, coords = "xy", into = c("lon", "lat"))
#> Simple feature collection with 100 features and 16 fields
#> Attribute-geometry relationship: 16 constant, 0 aggregate, 0 identity
#> Geometry type: POINT
#> Dimension:     XY
#> Bounding box:  xmin: -84.05977 ymin: 34.07688 xmax: -75.80913 ymax: 36.49124
#> Geodetic CRS:  WGS 84
#> # A tibble: 100 × 17
#>     AREA PERIMETER CNTY_ CNTY_ID NAME   FIPS  FIPSNO CRESS…¹ BIR74 SID74 NWBIR74
#>  * <dbl>     <dbl> <dbl>   <dbl> <chr>  <chr>  <dbl>   <int> <dbl> <dbl>   <dbl>
#>  1 0.114      1.44  1825    1825 Ashe   37009  37009       5  1091     1      10
#>  2 0.061      1.23  1827    1827 Alleg… 37005  37005       3   487     0      10
#>  3 0.143      1.63  1828    1828 Surry  37171  37171      86  3188     5     208
#>  4 0.07       2.97  1831    1831 Curri… 37053  37053      27   508     1     123
#>  5 0.153      2.21  1832    1832 North… 37131  37131      66  1421     9    1066
#>  6 0.097      1.67  1833    1833 Hertf… 37091  37091      46  1452     7     954
#>  7 0.062      1.55  1834    1834 Camden 37029  37029      15   286     0     115
#>  8 0.091      1.28  1835    1835 Gates  37073  37073      37   420     0     254
#>  9 0.118      1.42  1836    1836 Warren 37185  37185      93   968     4     748
#> 10 0.124      1.43  1837    1837 Stokes 37169  37169      85  1612     1     160
#> # … with 90 more rows, 6 more variables: BIR79 <dbl>, SID79 <dbl>,
#> #   NWBIR79 <dbl>, lon <dbl>, lat <dbl>, geometry <POINT [°]>, and abbreviated
#> #   variable name ¹​CRESS_ID
…
